0,1,2,3,4,5,6,7,8,9,10,11,12,13,14,15,16,17,18,19,20,21,22,23,24,25,26,27,28,29,30,31,32,33,34,35,36,37
1,18,2,3,8,5,19,18,2,8,15,20,2,1,18,9,17,14,14,16,13,16,9,20,16,17,6,18,6,18,3,13,17,19,5,18,20,5
2,15,18,14,19,20,5,20,16,11,6,18,19,15,10,3,8,7,10,10,15,15,9,12,8,16,19,2,16,4,5,20,11,19,18,10,8,15
3,18,6,14,18,18,16,2,12,2,9,9,7,20,17,5,14,14,9,12,10,2,12,4,6,11,3,11,17,15,15,1,13,16,2,19,14,20
4,11,7,16,14,19,12,16,8,9,19,12,20,5,7,16,4,15,19,20,19,15,2,8,7,17,3,9,6,18,13,6,5,6,12,3,4,16
5,8,4,2,11,4,6,18,4,12,20,5,13,12,20,4,1,6,20,2,12,17,6,10,11,3,2,12,2,5,8,16,3,10,5,19,15,6
6,2,7,2,13,11,3,18,4,18,7,6,9,3,10,12,9,16,11,9,11,1,7,20,15,1,12,14,6,16,19,6,12,18,14,6,7,11
7,12,14,1,15,2,18,2,20,11,14,1,10,12,4,3,12,8,19,17,11,13,15,13,10,3,11,7,12,17,17,18,12,6,17,20,7,10
8,9,15,8,3,20,3,19,9,18,20,17,7,17,15,11,7,7,18,9,20,16,1,17,9,5,15,11,9,6,5,6,15,10,5,11,13,5
9,14,8,3,8,13,13,1,20,3,13,12,10,13,6,9,10,19,13,3,12,20,10,5,9,11,8,20,15,18,18,5,6,13,4,1,5,15
10,17,2,13,5,14,5,7,10,3,8,15,11,7,19,16,16,3,18,3,19,17,19,7,15,3,7,8,17,8,7,19,13,11,19,16,3,20
11,3,11,18,9,19,17,7,8,18,3,16,1,7,2,11,8,7,2,5,5,5,3,4,18,14,14,13,4,17,1,3,3,15,19,9,4,11
12,15,4,4,4,3,17,2,12,4,4,20,9,12,13,16,16,17,18,16,18,9,2,16,17,16,10,6,5,13,2,4,20,3,18,16,2,17
13,7,4,10,1,20,11,6,18,13,19,11,16,8,1,7,1,7,8,4,5,1,15,4,11,20,16,14,12,9,19,1,20,17,3,13,20,17
14,1,19,4,6,2,10,12,17,7,11,16,18,17,19,11,11,16,2,8,8,1,13,2,16,15,10,8,20,12,9,2,8,17,15,11,11,1
15,2,17,4,10,12,14,10,16,15,12,3,16,18,11,2,11,10,4,9,16,10,14,14,11,2,11,12,1,15,4,18,9,3,9,14,4,13
16,2,8,17,6,18,19,14,1,4,7,17,4,1,2,4,12,5,8,16,11,6,12,9,18,9,7,20,6,18,3,1,1,18,18,13,7,6
17,2,13,16,6,15,19,5,17,4,3,11,9,18,15,5,4,15,6,17,6,2,9,14,7,20,12,20,14,10,20,11,11,11,20,9,14,9
18,4,19,11,4,9,7,18,8,18,7,11,15,14,20,17,10,14,14,13,5,1,15,20,19,8,13,7,18,6,5,11,19,12,20,8,9,6
19,19,4,6,5,13,12,17,10,14,12,5,14,12,2,8,8,16,11,15,20,8,14,9,13,6,14,8,9,11,17,10,16,1,14,13,3,3
20,20,20,12,11,15,3,14,2,18,20,10,4,18,4,3,1,15,9,2,7,3,14,9,11,10,5,6,14,12,13,6,6,15,4,16,6,15
21,4,2,2,10,1,14,18,14,2,16,4,1,2,14,8,19,11,3,20,1,13,15,10,15,19,18,9,16,6,6,9,9,7,14,8,6,4
22,20,14,20,4,19,11,7,13,8,20,16,9,16,12,18,1,16,13,6,9,3,6,18,7,20,3,9,20,16,20,12,20,7,15,6,16,6
23,19,11,13,11,11,19,18,6,19,16,20,4,10,11,15,4,4,18,8,11,10,17,15,18,6,19,14,18,3,19,5,6,11,19,7,13,2
24,18,19,3,1,14,17,2,6,16,14,15,7,4,9,7,13,17,2,9,14,11,7,6,1,1,12,12,6,7,4,8,10,19,1,9,17,13
25,20,13,3,16,20,3,13,2,11,3,1,12,18,20,17,18,5,11,6,19,18,16,15,8,3,18,17,14,10,2,20,17,14,9,17,16,19
26,12,13,16,8,17,16,6,11,8,3,20,7,1,2,3,4,11,6,4,9,11,4,9,5,20,1,20,14,4,4,12,17,19,1,3,4,2
27,18,10,6,15,10,12,7,10,11,15,18,1,3,16,4,7,6,15,4,9,19,4,5,6,17,19,15,11,5,8,1,20,12,19,6,4,14
28,20,9,8,15,2,11,10,13,11,15,11,14,1,6,9,7,19,14,3,3,4,6,14,15,19,10,16,14,14,17,6,20,6,11,16,7,8
29,17,6,17,7,12,3,12,19,6,20,12,11,19,19,5,20,2,1,7,15,1,12,4,4,4,11,9,19,8,11,1,20,14,2,7,10,18
30,1,4,3,6,10,10,19,8,13,5,17,2,3,19,20,14,15,8,5,6,6,3,19,9,9,2,1,10,17,10,4,14,3,18,16,11,2
31,16,12,1,9,2,11,3,12,17,8,15,7,8,8,6,15,11,20,16,15,10,9,11,4,15,5,14,18,3,16,17,11,19,9,12,5,11
32,14,17,3,11,4,11,14,8,20,12,6,1,17,7,7,5,16,4,17,7,7,16,5,7,16,9,16,7,20,13,14,12,17,11,18,8,13
33,10,10,6,16,1,13,16,7,18,2,20,4,13,7,6,6,17,5,4,20,1,19,5,5,5,20,15,9,17,4,14,2,19,2,20,1,4
34,14,7,11,6,4,7,19,3,11,12,14,16,11,5,11,6,4,5,10,15,18,20,1,12,1,19,17,4,14,20,13,10,14,3,14,15,11
35,12,15,3,19,17,12,2,15,10,12,16,20,19,19,12,6,11,11,8,9,6,2,1,8,15,15,17,12,6,15,5,20,3,1,16,8,8
36,16,11,2,19,2,13,1,16,15,20,8,17,15,3,17,20,14,18,14,6,4,4,13,3,9,7,11,9,19,19,14,5,4,9,1,18,13
37,13,19,19,10,16,2,9,5,18,10,8,16,2,11,10,12,17,17,11,19,15,20,6,8,3,2,14,19,6,1,12,2,9,6,12,18,8
38,11,5,20,15,17,20,13,10,9,9,14,14,16,13,11,20,14,5,16,18,19,1,5,4,6,18,7,12,3,3,4,2,12,17,9,10,7
39,3,2,6,12,4,20,9,18,2,16,18,19,12,2,9,12,20,8,20,12,5,18,20,19,19,9,9,12,2,16,15,6,2,14,19,3,18
40,9,20,10,15,6,20,6,13,9,17,14,14,4,5,4,5,3,9,3,9,18,18,13,12,2,8,5,14,12,7,11,8,5,2,7,3,3
41,13,16,12,16,20,5,18,16,1,3,18,8,12,14,10,13,17,17,6,18,18,7,15,19,4,11,17,11,20,20,17,1,5,2,14,2,8
42,18,8,6,17,14,8,6,17,6,18,7,5,12,11,12,11,5,18,9,3,13,4,11,1,3,15,20,16,15,5,7,1,13,14,1,2,16
43,12,13,16,13,2,16,10,14,3,8,2,3,16,18,19,20,18,19,5,19,15,14,13,8,5,14,16,5,17,2,4,16,9,1,3,13,2
44,4,15,9,16,4,20,11,11,18,14,2,4,16,3,19,17,18,12,10,19,7,4,2,8,6,20,20,12,3,13,3,11,4,3,15,13,16
45,4,6,8,15,10,13,20,4,20,3,10,19,17,6,18,20,7,13,12,14,16,7,11,6,2,1,19,8,2,2,2,20,1,19,16,4,2
46,19,9,17,12,8,10,6,16,11,6,14,2,1,4,10,7,4,7,7,19,15,18,16,18,7,8,8,4,9,17,18,13,11,8,8,20,9
47,5,11,3,18,12,20,15,5,11,11,3,16,12,9,19,4,20,4,11,11,6,18,19,9,1,11,4,20,9,8,10,4,15,20,9,13,2
48,20,15,8,11,5,12,8,18,5,11,10,6,17,17,12,11,4,8,12,14,16,3,18,3,16,13,8,11,4,14,2,14,14,12,20,10,16
49,2,15,9,19,12,5,4,7,5,4,19,11,19,9,5,19,7,13,19,8,19,18,8,7,2,9,7,11,15,4,14,20,11,14,9,19,4
50,12,17,7,14,1,10,7,20,17,3,20,10,1,16,7,4,10,17,4,16,2,4,15,6,8,9,10,20,4,7,6,9,2,6,10,1,8
51,1,11,2,20,20,8,17,6,3,19,16,3,13,13,3,15,10,7,13,2,16,10,10,14,16,1,1,2,5,7,2,6,6,6,19,14,16
52,11,2,6,5,18,12,20,11,10,7,5,19,16,19,16,2,13,19,9,3,8,17,12,17,17,8,18,18,15,6,3,9,3,3,1,15,10
53,11,14,17,14,3,14,15,19,6,8,18,13,7,9,15,2,13,14,4,5,20,13,3,4,17,9,12,10,13,9,2,4,14,10,1,14,13
54,6,13,18,2,20,9,2,10,9,13,4,9,10,9,18,14,15,18,7,20,14,19,17,3,7,6,12,15,7,7,14,18,3,11,6,7,17
